<?xml version="1.0" encoding="utf-8"?>
<!-- Generator: Adobe Illustrator 23.1.0, SVG Export Plug-In . SVG Version: 6.00 Build 0)  -->
<svg version="1.1" id="Layer_1" xmlns="http://www.w3.org/2000/svg" xmlns:xlink="http://www.w3.org/1999/xlink" x="0px" y="0px"
	 viewBox="0 0 40 40" style="enable-background:new 0 0 40 40;" xml:space="preserve">
<path d="M39.9,21.3l0-2c-3.5,0-6.7-1.3-9.2-3.8S27,9.8,26.9,6.3h-2c0,4,1.6,7.8,4.4,10.6c0.9,0.9,2,1.7,3.1,2.4H-0.1l0,2l32.6,0.1
	c-1.1,0.7-2.2,1.5-3.1,2.4c-2.8,2.8-4.4,6.6-4.4,10.6l2,0c0-3.5,1.3-6.7,3.8-9.2S36.5,21.4,39.9,21.3z"/>
</svg>
